kind: bootstrap_manual

context: Context1

depends:
- dependency: stage0
  scope: Build

provides: track_element

sources:
- kind: track_source
  sha: old_val

plugin_variables:
  join_strategy: Join
  variables:
    shell: /bin/sh
    cli: |
      mkdir -p /output_dir/
      touch /output_dir/test_source.output
      echo "non empty file" > /output_dir/test_source_second.output
      echo "message to stdout"
      echo "message to stderr" >&2
