kind: junction

plugin_variables:
  join_strategy: Join
  variables:
    over-ride-source-test_source: test_source
    over-ride-build-test_build: test_build

sources:
- kind: cas
  digest: "c40eab4515048a7a30c248fb7b26e8d1031636cb4155cb89c72a983e6320828e/169"